[{
  "relation": ["delegate_permission/common.handle_all_urls"],
  "target" : { "namespace": "android_app", "package_name": "uk.co.mortgagemagic.client",
               "sha256_cert_fingerprints": ["20:6F:FF:E9:7A:BC:88:2A:54:BC:F3:A0:39:33:C2:20:F3:03:D3:B3:48:25:66:04:94:C9:5F:B3:BA:7C:57:8F"] }
}]